<svg xmlns="http://www.w3.org/2000/svg" height="512pt" version="1.1" viewBox="0 -84 512.00002 512" width="512pt">
<g id="surface1">
<path d="M 353.101562 79.449219 C 294.597656 79.449219 247.171875 126.875 247.171875 185.378906 C 247.171875 243.882812 294.597656 291.308594 353.101562 291.308594 C 411.609375 291.308594 459.035156 243.882812 459.035156 185.378906 C 459.035156 126.875 411.609375 79.449219 353.101562 79.449219 Z M 353.101562 264.828125 C 309.226562 264.828125 273.65625 229.257812 273.65625 185.378906 C 273.65625 141.5 309.226562 105.929688 353.101562 105.929688 C 396.980469 105.929688 432.550781 141.5 432.550781 185.378906 C 432.550781 229.257812 396.980469 264.828125 353.101562 264.828125 Z M 353.101562 264.828125 " style=" stroke:none;fill-rule:nonzero;fill:rgb(0%,42.745098%,94.117647%);fill-opacity:1;" />
<path d="M 105.929688 0 L 158.898438 0 L 158.898438 26.484375 L 105.929688 26.484375 Z M 105.929688 0 " style=" stroke:none;fill-rule:nonzero;fill:rgb(18.431373%,46.27451%,79.215686%);fill-opacity:1;" />
<path d="M 185.378906 0 L 220.691406 0 L 220.691406 26.484375 L 185.378906 26.484375 Z M 185.378906 0 " style=" stroke:none;fill-rule:nonzero;fill:rgb(22.352941%,55.294118%,95.294118%);fill-opacity:1;" />
<path d="M 353.101562 105.929688 C 309.226562 105.929688 273.65625 141.5 273.65625 185.378906 C 273.65625 229.257812 309.226562 264.828125 353.101562 264.828125 C 396.980469 264.828125 432.550781 229.257812 432.550781 185.378906 C 432.550781 141.5 396.980469 105.929688 353.101562 105.929688 Z M 388.414062 203.035156 L 317.792969 203.035156 C 308.042969 203.035156 300.136719 195.128906 300.136719 185.378906 C 300.136719 175.628906 308.042969 167.722656 317.792969 167.722656 L 388.414062 167.722656 C 398.164062 167.722656 406.070312 175.628906 406.070312 185.378906 C 406.070312 195.128906 398.164062 203.035156 388.414062 203.035156 Z M 388.414062 203.035156 " style=" stroke:none;fill-rule:nonzero;fill:rgb(0%,28.627451%,62.745098%);fill-opacity:1;" />
<path d="M 388.414062 167.722656 L 317.792969 167.722656 C 308.042969 167.722656 300.136719 175.628906 300.136719 185.378906 C 300.136719 195.128906 308.042969 203.035156 317.792969 203.035156 L 388.414062 203.035156 C 398.164062 203.035156 406.070312 195.128906 406.070312 185.378906 C 406.070312 175.628906 398.164062 167.722656 388.414062 167.722656 Z M 388.414062 167.722656 " style=" stroke:none;fill-rule:nonzero;fill:rgb(0%,21.568627%,47.058824%);fill-opacity:1;" />
<path d="M 459.035156 185.378906 C 459.035156 243.882812 411.609375 291.308594 353.101562 291.308594 C 294.597656 291.308594 247.171875 243.882812 247.171875 185.378906 L 0 185.378906 L 0 308.964844 C 0 328.464844 15.808594 344.277344 35.308594 344.277344 L 476.691406 344.277344 C 496.191406 344.277344 512 328.464844 512 308.964844 L 512 185.378906 Z M 459.035156 185.378906 " style=" stroke:none;fill-rule:nonzero;fill:rgb(81.960784%,82.745098%,83.137255%);fill-opacity:1;" />
<path d="M 88.277344 79.449219 L 88.277344 185.378906 L 247.171875 185.378906 C 247.171875 126.875 294.597656 79.449219 353.101562 79.449219 C 411.609375 79.449219 459.035156 126.875 459.035156 185.378906 L 512 185.378906 L 512 61.792969 C 512 42.292969 496.191406 26.484375 476.691406 26.484375 L 35.308594 26.484375 C 15.808594 26.484375 0 42.292969 0 61.792969 L 0 185.378906 L 88.277344 185.378906 Z M 88.277344 79.449219 " style=" stroke:none;fill-rule:nonzero;fill:rgb(84.705882%,85.098039%,85.490196%);fill-opacity:1;" />
<path d="M 88.277344 300.136719 C 83.402344 300.136719 79.449219 296.183594 79.449219 291.308594 L 79.449219 79.449219 C 79.449219 74.574219 83.402344 70.621094 88.277344 70.621094 C 93.152344 70.621094 97.101562 74.574219 97.101562 79.449219 L 97.101562 291.308594 C 97.101562 296.183594 93.152344 300.136719 88.277344 300.136719 Z M 88.277344 300.136719 " style=" stroke:none;fill-rule:nonzero;fill:rgb(94.509804%,94.901961%,94.901961%);fill-opacity:1;" />
<path d="M 361.929688 194.207031 L 344.277344 194.207031 C 339.402344 194.207031 335.449219 190.253906 335.449219 185.378906 C 335.449219 180.503906 339.402344 176.550781 344.277344 176.550781 L 361.929688 176.550781 C 366.804688 176.550781 370.757812 180.503906 370.757812 185.378906 C 370.757812 190.253906 366.804688 194.207031 361.929688 194.207031 Z M 361.929688 194.207031 " style=" stroke:none;fill-rule:nonzero;fill:rgb(94.509804%,94.901961%,94.901961%);fill-opacity:1;" />
</g>
</svg>